{
  "images" : [
    {
      "idiom" : "universal",
      "filename" : "transparent-background-wine-bottle-png-white-wine-a52df4ef6591175b.png",
      "scale" : "1x"
    },
    {
      "idiom" : "universal",
      "scale" : "2x"
    },
    {
      "idiom" : "universal",
      "scale" : "3x"
    }
  ],
  "info" : {
    "version" : 1,
    "author" : "xcode"
  }
}